\relax 
\providecommand*\new@tpo@label[2]{}
\bbl@beforestart
\catcode `"\active 
\catcode `<\active 
\catcode `>\active 
\@nameuse{es@quoting}
\babel@aux{spanish}{}
\@writefile{lol}{\contentsline {lstlisting}{./main\textunderscore prac05.cpp}{1}\protected@file@percent }
